<?xml version="1.0" encoding="UTF-8"?>
<session version="1.0">
<refactoring comment="Delete resource &apos;blog&apos;" deleteContents="false" description="Delete resource &apos;blog&apos;" element1="/blog" flags="7" id="org.eclipse.ltk.core.refactoring.delete.resources" resources="1" stamp="1408109406404"/>
</session>